Взаимосвязи в компании: отчет
…
## 
##  Asymptotic General Independence Test
## 
## data:  Note by MeanBetweenness
## maxT = 4.7257, p-value = 8.581e-05
## alternative hypothesis: two.sided

Значение p-value = 0.00008599, что делает полученные результаты
статистически значимыми на любом выбранном уровне значимости.

Посмотрим на экстремальные значения битвинности.

print(df1[order(df1$MeanBetweenness, decreasing = FALSE),] )

## # A tibble: 38 × 2
##    Note                                  MeanBetweenness
##    <fct>                                           <dbl>
##  1 CEO                                                 0
##  2 Employee, Analyst Risk Management                   0
##  3 Employee, Associate                                 0
##  4 Employee, Cash Analyst                              0
##  5 Employee, Senior Analyst Cash                       0
##  6 Employee, Senior Specialist                         0
##  7 Employee, Senior Specialist Logistics               0
##  8 Employee, Sr.Specialist                             0
##  9 Manager, Logistics Manager                          0
## 10 Manager, Regulatory Affairs                         0
## # ℹ 28 more rows

print(df1[order(df1$MeanBetweenness, decreasing = TRUE),] )

## # A tibble: 38 × 2
##    Note                                              MeanBetweenness
##    <fct>                                                       <dbl>
##  1 CEO, Enron America                                          2184.
##  2 Employee, Government Relation Executive                     1088.
##  3 President, Enron Online                                      751.
##  4 Vice President, Government Affairs                           747.
##  5 Vice President, Vice President & Chief of Staff              607.
##  6 Manager                                                      602.
##  7 Vice President, Regulatory Affairs                           440.
##  8 Managing Director, Legal Department                          431.
##  9 CEO, Enron North America and Enron Enery Services            307.
## 10 Vice President                                               247.
## # ℹ 28 more rows
…
